C:\Users\alexandru.busurca\Desktop\StartIT\fileUploader\src\main\java\com.startit.uploadfile\service\StorageService.java
C:\Users\alexandru.busurca\Desktop\StartIT\fileUploader\src\main\java\com.startit.uploadfile\controller\UploadController.java
C:\Users\alexandru.busurca\Desktop\StartIT\fileUploader\src\main\java\com.startit.uploadfile\service\FileStorageService.java
C:\Users\alexandru.busurca\Desktop\StartIT\fileUploader\src\main\java\com.startit.uploadfile\fileUploaderApp.java
